<svg xmlns="http://www.w3.org/2000/svg" width="198" height="150">
  <g fill="none" fill-rule="nonzero">
    <path fill="#303030" d="M6.81 143c.07651799.92443-.24196146 1.838036-.87656963 2.51457S4.40743019 146.567302 3.48 146.55c-.89563065.011455-1.75456131-.355336-2.36564859-1.010209C.50326412 144.884919.1966931 144.002699.27 143.11c-.07653382-.921775.24088443-1.832845.87362024-2.507509C1.77635606 139.927827 2.66521546 139.552685 3.59 139.57c.89643782-.017176 1.75822305.346068 2.3718899.999756.61366685.653689.92181301 1.536676.8481101 2.430244zm-5.3.07c0 1.46.83 2.57 2 2.57s2-1.09 2-2.6c0-1.13-.57-2.56-2-2.56-1.43 0-2 1.34-2 2.6v-.01zm10.05-3.35l2.23 2.92H14v-2.92h1.16v2.92h.24l2.21-2.92H19l-2.65 3c.9697262.117022 1.7659623.821691 2 1.77a16.7899726 16.7899726 0 0 0 .73 1.88h-1.17a8.69000151 8.69000151 0 0 1-.61-1.53c-.203159-.8784-1.0099384-1.482428-1.91-1.43h-.21v3H14v-3h-.21c-.913006-.070488-1.7375629.544725-1.93 1.44a13.92998598 13.92998598 0 0 1-.62 1.52h-1.17a15.17004032 15.17004032 0 0 0 .74-1.87c.2355752-.949139 1.0299405-1.656124 2-1.78l-2.64-3h1.39zm12.53 0v2.82c0 1.05 0 1.73-.08 2.68.42-.82.64-1.29 1.1-2.06l2.08-3.46h1.43v6.69H27.5v-2.83c0-1.1 0-1.66.08-2.75-.44.87-.72 1.41-1.12 2.08-.64 1-1.38 2.33-2.09 3.5h-1.44v-6.69l1.16.02zm9.26.08c.7055919-.100001 1.4173569-.150126 2.13-.15 1.14 0 3 .19 3 1.67-.0330204.780501-.6248405 1.423048-1.4 1.52 1 .14 1.7.68 1.7 1.65 0 1.75-2.21 2-3.52 2-.75 0-1.54-.05-1.9-.08l-.01-6.61zm1.16 5.82h1c.83 0 2.05-.18 2.05-1.16s-1-1.17-2.13-1.17h-.89l-.03 2.33zm0-3.08h.91c.9 0 1.82-.26 1.82-1.07 0-.66-.58-1-1.79-1-.3142904-.000009-.6282613.020032-.94.06v2.01zm13.69-2.82v6.69H47v-5.74h-2.3v1.72c0 1.88-.18 3.14-1 3.7-.3714707.301119-.8428248.451095-1.32.42l-.13-1c.242206-.03328.4723954-.126043.67-.27.62-.46.69-1.4.69-2.89v-2.67l4.59.04zm9.67 6.69h-1.2v-2.81h-.9c-.4083222-.031431-.8110729.110076-1.11.39-.4621209.53808-.7879614 1.179472-.95 1.87-.083225.188306-.1766983.371915-.28.55h-1.3c.1625997-.238462.3000029-.49316.41-.76.203403-.735931.5651759-1.418522 1.06-2 .2152388-.193689.4771401-.328086.76-.39-.9394578-.008724-1.712306-.742275-1.77-1.68-.0056844-.61119.33521-1.172891.88-1.45.6993835-.33933 1.4739037-.494234 2.25-.45.7187213-.003116 1.4368904.040308 2.15.13v6.6zm-1.2-5.89c-.3312885-.046668-.6654406-.070058-1-.07-.82 0-1.82.24-1.82 1.16 0 .92 1.07 1.18 1.79 1.18h1l.03-2.27zm6.61 2.77c-.0548832.626968.1690044 1.246309.6121027 1.69326.4430983.446952 1.0604772.676193 1.6878973.62674.63513.0238 1.267459-.09583 1.85-.35l.22.87c-.7068912.303289-1.4710527.44998-2.24.43-.9036775.0526-1.7856519-.289866-2.4170357-.938522-.6313838-.648655-.9499278-1.539549-.8729643-2.441478 0-2 1.19-3.6 3.14-3.6 2.2 0 2.77 1.91 2.77 3.14a2.72000428 2.72000428 0 0 1 0 .57h-4.75zm3.57-.87c.0784895-.496559-.0629022-1.002702-.3873748-1.386693-.3244726-.383992-.7999305-.607848-1.3026252-.613307-1.0495509.073646-1.8625807.947872-1.8600061 2H66.85zm5.53-2.7h1.49l1.2 3.37c.18.5.46 1.32.61 1.84.15-.51.52-1.56.8-2.29l1.06-2.92h1.51l.47 6.69h-1.13l-.15-3.19c0-.74-.09-1.58-.11-2.39-.17.6-.37 1.13-.74 2.17l-1.29 3.37h-.87L74 143.05c-.22-.62-.51-1.59-.67-2.21h-.06c0 .79-.05 1.67-.1 2.4l-.17 3.17h-1.14l.52-6.69zm27.92 0v6.69h-1.21v-5.74h-2.3v1.72c0 1.88-.18 3.14-1.05 3.7-.3714707.301119-.8428248.451095-1.32.42l-.13-1c.242206-.03328.4723954-.126043.67-.27.62-.46.69-1.4.69-2.89v-2.67l4.65.04zm9.44 5.09c-.005414.53505.028007 1.069788.1 1.6h-1.09l-.1-.84c-.472136.629515-1.213107 1-2 1-.524496.027681-1.037054-.162988-1.415945-.526724-.378892-.363736-.590314-.868087-.584055-1.393276 0-1.62 1.44-2.5 4-2.49V142c.05207-.417786-.090848-.836312-.387575-1.134991-.296727-.298679-.714307-.444338-1.132425-.395009-.622749-.007597-1.23426.166127-1.76.5l-.27-.82c.672378-.385455 1.434993-.585598 2.21-.58 2 0 2.54 1.4 2.54 2.72l-.11 2.52zm-1.17-1.81c-1.33 0-2.84.2-2.84 1.5-.027058.311616.083591.61947.302834.842559.219244.22309.525126.339076.837166.317441.732434.024321 1.396124-.428931 1.64-1.12a1.35998656 1.35998656 0 0 0 .06-.38V143zm7.07-3.28v2.7h3.17v-2.7H120v6.69h-1.21v-3h-3.17v3h-1.22v-6.69h1.24zm14.36 0v5.78h.69l-.07 3h-1l-.06-2.12h-4.63l-.07 2.12h-.94l-.05-3h.56c.284653-.42404.510069-.884965.67-1.37.261103-.865631.389231-1.765895.38-2.67v-1.74H130zm-3.4 2c.012114.846344-.105931 1.689522-.35 2.5a6.69996963 6.69996963 0 0 1-.52 1.24h3.08v-4.83h-2.21v1.09zm9.4-2v5.74h2.33v-5.74h1.2v5.74h2.32v-5.74h1.2v6.69h-8.25v-6.69h1.2zm16.53 5.09c-.008415.534802.021663 1.069516.09 1.6h-1.09l-.1-.84c-.471094.630762-1.212734 1.001582-2 1-.524496.027681-1.037054-.162988-1.415945-.526724-.378892-.363736-.590314-.868087-.584055-1.393276 0-1.62 1.44-2.5 4-2.49V142c.05207-.417786-.090848-.836312-.387575-1.134991-.296727-.298679-.714307-.444338-1.132425-.395009-.619433-.006231-1.227359.167462-1.75.5l-.28-.82c.672378-.385455 1.434993-.585598 2.21-.58 2.05 0 2.55 1.4 2.55 2.72l-.11 2.52zm-1.18-1.81c-1.33 0-2.83.2-2.83 1.5-.030223.310613.077966.618761.29573.842306s.522972.33977.83427.317694c.732434.024321 1.396124-.428931 1.64-1.12.042794-.122001.063122-.250749.06-.38V143zm9.89-6.38v3c1.846831.099107 3.293519 1.625511 3.293519 3.475 0 1.849489-1.446688 3.375893-3.293519 3.475v2.61h-1.13v-2.6c-.907703.014314-1.781446-.344811-2.416718-.993317-.635271-.648506-.976307-1.529468-.943282-2.436683-.043884-.917598.290977-1.812957.926224-2.476563.635247-.663607 1.515137-1.037228 2.433776-1.033437v-3l1.13-.02zm-1.12 3.82c-1.250937.256919-2.148821 1.357953-2.148821 2.635 0 1.277047.897884 2.378081 2.148821 2.635v-5.27zm1.11 5.28c1.303755-.194664 2.24192-1.35434 2.16-2.67.08409-1.304505-.862784-2.448644-2.16-2.61v5.28zm12.09-6v.95h-2.09v5.74H170v-5.74h-2.09v-.95h5.41zM183 143c.076518.92443-.241961 1.838036-.87657 2.51457-.634608.676534-1.526 1.052732-2.45343 1.03543-.895631.011455-1.754561-.355336-2.365649-1.010209-.611087-.654872-.917658-1.537092-.844351-2.429791-.076534-.921775.240884-1.832845.87362-2.507509.632736-.674664 1.521595-1.049806 2.44638-1.032491.896438-.017176 1.758223.346068 2.37189.999756.613667.653689.921813 1.536676.84811 2.430244zm-5.29.07c0 1.46.83 2.57 2 2.57s2-1.09 2-2.6c0-1.13-.57-2.56-2-2.56-1.43 0-1.98 1.34-1.98 2.6l-.02-.01zm9.69-3.35h1.49l1.21 3.37c.18.5.45 1.32.61 1.84.15-.51.53-1.56.8-2.29l1.07-2.92h1.51l.47 6.69h-1.17l-.15-3.19c0-.74-.08-1.58-.11-2.39-.18.6-.37 1.13-.75 2.17l-1.28 3.37h-.87l-1.23-3.32c-.22-.62-.51-1.59-.68-2.21h-.05c0 .79-.06 1.67-.1 2.4l-.18 3.17h-1.12l.53-6.69z"/>
    <path fill="#000" d="M15.52 118.57c.4788759.418071.8639614.932654 1.13 1.51.3027653.685932.4496251 1.430477.43 2.18.0792917 1.943751-.8364798 3.794137-2.43 4.91-1.6133333 1.18-3.93 1.77-6.95 1.77-1.32233563.007222-2.64212794-.116718-3.94-.37-1.16949105-.222637-2.31479049-.55752-3.42-1v-4.7h.48c.87716222.573389 1.81233064 1.052705 2.79 1.43 1.07329664.45295 2.22507736.690781 3.39.7 1.17759448.053958 2.34814958-.208468 3.39-.76.8270065-.485501 1.3133113-1.392498 1.26-2.35.0511475-.779325-.2949557-1.531723-.92-2-1.01451498-.530303-2.15956209-.759312-3.3-.66h-3v-3.76h2.84c1.00358691.072555 2.0075961-.135171 2.9-.6.6096359-.389458.9614401-1.07777.92-1.8.0207541-.671733-.3779204-1.285692-1-1.54-.85044732-.371877-1.77208096-.55279-2.7-.53a8.0700068 8.0700068 0 0 0-1.8.2c-.56843929.132869-1.1292614.296443-1.68.49-.47839022.179109-.94586006.386132-1.4.62l-1 .51H1v-4.38c.97949562-.359182 1.98168483-.653157 3-.88 1.43221084-.336358 2.89882788-.504163 4.37-.5 2.72 0 4.74.45 6.09 1.35 1.2871194.804442 2.0489972 2.232963 2 3.75.0227015 1.131475-.3724928 2.23161-1.11 3.09-.7271842.866795-1.7113337 1.479699-2.81 1.75v.21c.5185459.102796 1.0247151.260345 1.51.47.5376903.20961 1.0350339.510722 1.47.89zm4.79 9.96v-21h14.22v4h-9v3.69h8.26v4h-8.23v5.31h9v4H20.31zm35.9 0h-5.28v-17h-5.31c0 .82-.08 1.59-.11 2.3-.03.71-.07 1.38-.1 2-.0829632 1.591472-.2532192 3.177191-.51 4.75a20.99997765 20.99997765 0 0 1-.81 3.27c-.2524084.748424-.5878317 1.46623-1 2.14-.293129.441112-.6280041.853008-1 1.23-.4854289.469451-1.0648192.830718-1.7 1.06-.6366218.253213-1.3148844.385474-2 .39-.44 0-.93 0-1.46-.06-.53-.06-.86-.06-1-.08v-4.65H36.75c.3030957-.004004.6048621-.040886.9-.11.310576-.043738.6020969-.175617.84-.38.7713815-.826194 1.258423-1.877363 1.39-3a47.16998621 47.16998621 0 0 0 .57-5.81c.06-1.16.09-2.2.11-3.12.02-.92 0-2.27.1-4h15.55v21.07zm4.35 0v-21h14.22v4h-9v3.69h8.26v4h-8.23v5.31h9v4H60.56zm35.55 0h-5.29v-9.32h-7.18v9.32h-5.29v-21h5.29v7.7h7.18v-7.7h5.29v21zm23.5-10.53c0 3.4-.91 6.066667-2.73 8-4.206676 3.92487-10.733324 3.92487-14.94 0-1.897984-2.219238-2.8684695-5.084139-2.71-8-.1595092-2.916004.811104-5.781281 2.71-8 4.216235-3.900539 10.723765-3.900539 14.94 0 1.907935 2.214647 2.886081 5.081008 2.73 8zm-5.46 0c.019761-1.079-.10809-2.155636-.38-3.2-.201642-.777044-.540279-1.511887-1-2.17-.402583-.52813-.927708-.950289-1.53-1.23-.560179-.249909-1.166604-.379371-1.78-.38-.604698-.007809-1.204298.11143-1.76.35-.599199.284664-1.123244.705955-1.53 1.23-.465471.658462-.804558 1.397671-1 2.18-.519966 2.118562-.519966 4.331438 0 6.45.199261.765545.538287 1.487672 1 2.13.397031.54242.92752.973013 1.54 1.25 1.140297.519446 2.449703.519446 3.59 0 .599219-.284976 1.118134-.714541 1.51-1.25.465832-.650421.82064-1.373553 1.05-2.14.245724-1.054659.343329-2.138408.29-3.22zm22.76-6.49H128v17h-5.28v-21h14.18l.01 4zm18.36 2.63c.003377.949981-.155576 1.893556-.47 2.79-.275591.830638-.733427 1.589143-1.34 2.22a8.90998628 8.90998628 0 0 1-1.18 1 7.2100617 7.2100617 0 0 1-1.42.79c-.544228.227855-1.110579.398765-1.69.51-.659469.123154-1.329139.183425-2 .18h-2.77v6.88h-5.28v-21h8.16c1.059469-.017508 2.117162.093298 3.15.33.848212.193517 1.656717.531804 2.39 1 .789181.532463 1.423881 1.263748 1.84 2.12.446948.998428.655773 2.087057.61 3.18zm-5.43.13c.015339-.543568-.13082-1.079482-.42-1.54-.233873-.390052-.583379-.697617-1-.88-.451485-.205661-.935425-.330877-1.43-.37H144.38v6.3H146.16c.388655-.003623.776459-.037054 1.16-.1.309696-.053777.611844-.144422.9-.27.265383-.109418.509181-.265178.72-.46.329558-.297522.580349-.67199.73-1.09.144985-.516802.202445-1.054227.17-1.59zm5.99 14.26l7.1-21h5.77l7.1 21h-5.44l-1.31-4.29h-6.61l-1.31 4.29h-5.3zm12.06-8.11l-2.14-6.93-2.15 6.93h4.29zm29.43 12.94h-4.84v-4.9h-11.75v4.9h-4.84v-8.86h1.41c1.096358-2.386608 1.882747-4.903725 2.34-7.49.594586-3.134583.882611-6.319604.86-9.51h14.83v17h2l-.01 8.86zm-7.27-8.86v-13h-4.6c-.163082 2.407681-.517534 4.798563-1.06 7.15-.456035 2.01255-1.126533 3.970406-2 5.84l7.66.01z"/>
    <path fill="#67B658" d="M16.61 76.65c5.14-.44 9.21-6.29 9.21-13.44 0-7.44-4.41-8.63-9.84-8.63s-9.83 1.19-9.83 8.63c0 7.12 4 12.95 9.14 13.44h1.32z"/>
    <path fill="#009539" d="M40 76.52c5.14-.44 9.2-6.29 9.2-13.44 0-7.45-4.4-31.55-9.83-31.55s-9.83 24.1-9.83 31.55c0 7.12 4 13 9.14 13.43l1.32.01z"/>
    <path fill="#67B658" d="M180.72 76.59c-5.13-.45-9.2-6.3-9.2-13.45 0-7.44 4.4-8.62 9.83-8.62s9.84 1.18 9.84 8.62c0 7.12-4 13-9.14 13.44l-1.33.01z"/>
    <path fill="#009539" d="M157.38 76.45c-5.13-.44-9.2-6.29-9.2-13.44 0-7.44 4.4-31.54 9.83-31.54s9.84 24.1 9.84 31.54c0 7.12-4 12.95-9.14 13.44h-1.33z"/>
    <path fill="#000" d="M114.25 95.11h-6.6V32.75l5.85-4.48V7.71L82.89.93v19.94l8.36-1.28v75.14H91v.38h-8.86V21.74l-16.81 2.58v70.41H65V95H39.83V76.18h.35C45.15 75.72 49 70 49 63.08c0-8.26-4.71-31.17-9.46-31.17-4.75 0-9.46 22.91-9.46 31.17 0 6.85 3.87 12.59 8.8 13.06h.34v18.87H16.5v-18.7h.35c5-.43 8.86-6.17 8.86-13.07S21.92 55 16.24 55c-5.68 0-9.46 1.4-9.46 8.25s3.87 12.59 8.8 13.06h.34V95H0v-.75h15.17V77C10 76.25 6 70.29 6 63.21c0-7.91 4.91-9 10.21-9 5.3 0 10.21 1.09 10.21 9 0 7.13-4 13.09-9.21 13.78v17.3h21.27V76.85c-5.15-.73-9.14-6.69-9.14-13.77 0-7.48 4.35-31.92 10.21-31.92 5.86 0 10.24 24.44 10.24 31.92 0 7.13-4 13.09-9.21 13.78v17.43h24V23.67L82.14 21V0l32.11 7.11V27.7l6.11-4.7 12.71 9.72v61.57h24V76.86c-5.19-.69-9.21-6.65-9.21-13.78 0-7.48 4.35-31.92 10.21-31.92 5.86 0 10.21 24.44 10.21 31.92 0 7.08-4 13-9.14 13.77v17.44h21.26V77c-5.19-.69-9.2-6.65-9.2-13.78 0-7.91 4.9-9 10.21-9 5.31 0 10.21 1.09 10.21 9 0 7.08-4 13-9.14 13.77v17.28h15.17V95h-15.92V76.31h.34c4.93-.47 8.8-6.21 8.8-13.06 0-6.85-3.79-8.25-9.46-8.25-5.67 0-9.41 1.36-9.41 8.21 0 6.85 3.89 12.64 8.86 13.07h.34V95h-22.78V76.13h.34c4.93-.47 8.8-6.21 8.8-13.06 0-8.26-4.71-31.17-9.46-31.17-4.75 0-9.46 22.91-9.46 31.17 0 6.9 3.89 12.64 8.86 13.07h.35V95h-25.16v-.31h-.37V33.12l-12-9.14-6.11 4.66.04 66.47zm-5.85-.75h5.1V29.22l-5.1 3.9v61.24zm-25.51 0h7.61v-73.9l-7.61 1.17v72.73z"/>
  </g>
</svg>
